AHV 
Node 1 - port 1 and port 2 - eth trunk 8 - port 1/0/39 and 2/0/39
Data - port 3 and port 4 - eth trunk 13 - port 1/0/44 and 2/0/44

Node 2 - port 5 and port 6 - eth trunk 9 - port 1/0/40 and 2/0/40
Data - port 7 and port 8 - eth trunk 14 - port 1/0/45 and 2/0/45

Node 3 - port 9 and port 10 - eth trunk 10 - port 1/0/41 and 2/0/41
Data - port 11 and port 12 - eth trunk 15 - port 1/0/46 and 2/0/46

Node 4 - port 13 and port 14 - eth trunk 11 - port 1/0/42 and 2/0/42
Data - port 15 and port 16 - eth trunk 16 - port 1/0/47 and 2/0/47

Node 5 - Port 17 and Port 18 - eth trunk 12 - port 1/0/43 and 2/0/43
Data - port 19 and port 20 - eth trunk 17 - port 1/0/48 and 2/0/48


